{
  "name": "ecommere_server",
  "version": "1.0.1",
  "description": "",
  "main": "index.js",
  "scripts": {
    "test": "echo \"Error: no test specified\" && exit 1",
    "start": "nodemon --inspect src/index.js"
  },
  "author": "DatPhan",
  "license": "ISC",
  "dependencies": {
    "axios": "^1.3.2",
    "body-parser": "^1.20.1",
    "cloudinary": "^1.32.0",
    "config": "^3.3.8",
    "cors": "^2.8.5",
    "crypto-js": "^4.1.1",
    "dotenv": "^16.0.3",
    "express": "^4.18.2",
    "express-fileupload": "^1.4.0",
    "express-validator": "^6.14.2",
    "jsonwebtoken": "^8.5.1",
    "moment": "^2.29.4",
    "mongoose": "^6.7.2",
    "nanoid": "^3.3.4",
    "nodemailer": "^6.8.0",
    "validator": "^13.7.0"
  },
  "devDependencies": {
    "morgan": "^1.10.0",
    "nodemon": "^2.0.20"
  }
}
