{
    "vnp_TmnCode":"3BZE4DJY",
    "vnp_HashSecret":"ZXNZQXVGSORPUGBVNZTYQPFPIIAQWSPS",
    "vnp_Url":"https://sandbox.vnpayment.vn/paymentv2/vpcpay.html",
    "vnp_Api":"https://sandbox.vnpayment.vn/merchant_webapi/api/transaction",
    "vnp_ReturnUrl": "/payment/success"
  }